Bayesian statistical modeling by Stan&R introduction (the book by baba)
…
    Bayesian statistical modeling by Stan&R introduction (the book by baba)

data was downloaded from this website

library(tidyverse)
library(rstan)
library(brms)
rstan_options(auto_write = T)
options(mc.cores = parallel::detectCores())

df <- read_csv("/Users/tomoya/Documents/dataset/bayesian_intro_baba/3-9-1-germination.csv")
df

# A tibble: 100 x 4
   germination  size solar nutrition
         <dbl> <dbl> <chr>     <dbl>
 1           0    10 shade         1
 2           0    10 shade         1
 3           0    10 shade         1
 4           0    10 shade         1
 5           0    10 shade         1
 6           0    10 shade         2
 7           0    10 shade         2
 8           0    10 shade         2
 9           0    10 shade         2
10           0    10 shade         2
#  with 90 more rows
…
