Bayesian statistical modeling by Stan&R introduction (the book by baba)
…
data was downloaded from this website

library(tidyverse)
library(rstan)
library(bayesplot)
library(brms)

rstan_options(auto_write = TRUE)
options(mc.cores = parallel::detectCores())

path <- "/Users/tomoya/Documents/dataset/bayesian_intro_baba/3-6-1-beer-sales-3.csv"
df <- read_csv(path)
df

# A tibble: 150 x 2
   sales weather
   <dbl> <chr>  
 1  48.5 cloudy 
 2  64.8 cloudy 
 3  85.8 cloudy 
 4  45   cloudy 
 5  60.8 cloudy 
 6  64   cloudy 
 7  72.6 cloudy 
 8  58.4 cloudy 
 9  91.8 cloudy 
10  59.9 cloudy 
#  with 140 more rows
…
